…
<!-- end list -->

``` r
#Read Mr. Trash Wheel Sheet
trash_wheel_df <- read_xlsx("./Datasets/Trash-Wheel-Collection-Totals-8-6-19.xlsx", sheet = "Mr. Trash Wheel" , range = cell_cols("A:N")) %>%
  janitor::clean_names() %>% 
  drop_na(dumpster) %>%
  mutate(sports_balls = round(sports_balls, digits = 0)) %>%
  mutate(sports_balls = as.integer(sports_balls)) %>%
  relocate(dumpster,month,year,date,sports_balls)
trash_wheel_df
## # A tibble: 344 x 14
##    dumpster month  year date                sports_balls weight_tons
##       <dbl> <chr> <dbl> <dttm>                     <int>       <dbl>
##  1        1 May    2014 2014-05-16 00:00:00            7        4.31
##  2        2 May    2014 2014-05-16 00:00:00            5        2.74
##  3        3 May    2014 2014-05-16 00:00:00            6        3.45
##  4        4 May    2014 2014-05-17 00:00:00            6        3.1 
##  5        5 May    2014 2014-05-17 00:00:00            7        4.06
##  6        6 May    2014 2014-05-20 00:00:00            5        2.71
##  7        7 May    2014 2014-05-21 00:00:00            3        1.91
##  8        8 May    2014 2014-05-28 00:00:00            6        3.7 
##  9        9 June   2014 2014-06-05 00:00:00            6        2.52
## 10       10 June   2014 2014-06-11 00:00:00            7        3.76
## # ... with 334 more rows, and 8 more variables: volume_cubic_yards <dbl>,
## #   plastic_bottles <dbl>, polystyrene <dbl>, cigarette_butts <dbl>,
## #   glass_bottles <dbl>, grocery_bags <dbl>, chip_bags <dbl>,
## #   homes_powered <dbl>
```
…
  janitor::clean_names() %>%
  drop_na(total) %>%
  mutate(year = 2017)
#Combine these two tibble and add month name
month_df <- tibble(
  month = as.double(c(1:12)),
  month_name = month.name
)
precipitation_all <- bind_rows(precipitation_2017, precipitation_2018) %>%
  left_join(., month_df, by = "month") %>%
  select(-month) %>%
  rename(month = month_name) %>%
  relocate(year, month)
precipitation_all
## # A tibble: 24 x 3
##     year month     total
##    <dbl> <chr>     <dbl>
##  1  2017 January    2.34
##  2  2017 February   1.46
##  3  2017 March      3.57
##  4  2017 April      3.99
##  5  2017 May        5.64
##  6  2017 June       1.4 
##  7  2017 July       7.09
##  8  2017 August     4.44
##  9  2017 September  1.95
## 10  2017 October    0   
## # ... with 14 more rows
```
…
### 2.1 Import and clean the NYC subway data

Read and clean the data; retain line, station, name, station latitude /
longitude, routes served, entry, vending, entrance type, and ADA
compliance. Convert the entry variable from character (YES vs NO) to a
logical variable.

``` r
#Read and clean NYC subway data
NYC_subway <- read_csv("./Datasets/NYC_Transit_Subway_Entrance_And_Exit_Data.csv") %>%
  janitor::clean_names() %>% 
  select(line, station_name, station_latitude, station_longitude, route1:route11, entry, vending, entrance_type, ada) %>%
  mutate(entry = recode(entry, "YES" = T, "NO" = F))
NYC_subway
## # A tibble: 1,868 x 19
##    line  station_name station_latitude station_longitu~ route1 route2 route3
##    <chr> <chr>                   <dbl>            <dbl> <chr>  <chr>  <chr> 
##  1 4 Av~ 25th St                  40.7            -74.0 R      <NA>   <NA>  
##  2 4 Av~ 25th St                  40.7            -74.0 R      <NA>   <NA>  
##  3 4 Av~ 36th St                  40.7            -74.0 N      R      <NA>  
##  4 4 Av~ 36th St                  40.7            -74.0 N      R      <NA>  
##  5 4 Av~ 36th St                  40.7            -74.0 N      R      <NA>  
##  6 4 Av~ 45th St                  40.6            -74.0 R      <NA>   <NA>  
##  7 4 Av~ 45th St                  40.6            -74.0 R      <NA>   <NA>  
##  8 4 Av~ 45th St                  40.6            -74.0 R      <NA>   <NA>  
##  9 4 Av~ 45th St                  40.6            -74.0 R      <NA>   <NA>  
## 10 4 Av~ 53rd St                  40.6            -74.0 R      <NA>   <NA>  
## # ... with 1,858 more rows, and 12 more variables: route4 <chr>, route5 <chr>,
## #   route6 <chr>, route7 <chr>, route8 <dbl>, route9 <dbl>, route10 <dbl>,
## #   route11 <dbl>, entry <lgl>, vending <chr>, entrance_type <chr>, ada <lgl>
```
…
<!-- end list -->

``` r
#How many stations?
NYC_stations <- NYC_subway %>% 
  distinct(.,station_name, route1, route2, route3, route4, route5, 
           route6, route7, route8, route9, route10, route11, .keep_all = T)
NYC_stations
## # A tibble: 456 x 19
##    line  station_name station_latitude station_longitu~ route1 route2 route3
##    <chr> <chr>                   <dbl>            <dbl> <chr>  <chr>  <chr> 
##  1 4 Av~ 25th St                  40.7            -74.0 R      <NA>   <NA>  
##  2 4 Av~ 36th St                  40.7            -74.0 N      R      <NA>  
##  3 4 Av~ 45th St                  40.6            -74.0 R      <NA>   <NA>  
##  4 4 Av~ 53rd St                  40.6            -74.0 R      <NA>   <NA>  
##  5 4 Av~ 59th St                  40.6            -74.0 N      R      <NA>  
##  6 4 Av~ 77th St                  40.6            -74.0 R      <NA>   <NA>  
##  7 4 Av~ 86th St                  40.6            -74.0 R      <NA>   <NA>  
##  8 4 Av~ 95th St                  40.6            -74.0 R      <NA>   <NA>  
##  9 4 Av~ 9th St                   40.7            -74.0 F      G      R     
## 10 4 Av~ Atlantic Av~             40.7            -74.0 B      Q      D     
## # ... with 446 more rows, and 12 more variables: route4 <chr>, route5 <chr>,
## #   route6 <chr>, route7 <chr>, route8 <dbl>, route9 <dbl>, route10 <dbl>,
## #   route11 <dbl>, entry <lgl>, vending <chr>, entrance_type <chr>, ada <lgl>
…
``` r
#Read and clean pols_month.csv
pol <- read_csv("./Datasets/pols-month.csv") %>%
  janitor::clean_names() %>%
  separate(mon,c("year","month","day")) %>%
  mutate(year = as.integer(year), month = as.integer(month), day = as.integer(day)) %>%
  mutate(month = recode(month, `1` = "Jan", `2` = "Feb", `3` = "Mar", `4` = "Apr",    #As my operation system is in
                        `5` = "May" , `6`= "Jun", `7` = "Jul", `8` = "Aug",           #Chinese, if I use function 
                        `9` = "Sep", `10` = "Oct", `11` = "Nov", `12` = "Dec")) %>%   #months, it will appear in Chinese. 
  mutate(president = ifelse(prez_dem == 1, "dem", "gop")) %>%
  select(-prez_dem,-prez_gop,-day) %>%
  arrange(desc(row_number()))
pol
## # A tibble: 822 x 9
##     year month gov_gop sen_gop rep_gop gov_dem sen_dem rep_dem president
##    <int> <chr>   <dbl>   <dbl>   <dbl>   <dbl>   <dbl>   <dbl> <chr>    
##  1  2015 Jun        31      54     246      18      44     188 dem      
##  2  2015 May        31      54     245      18      44     188 dem      
##  3  2015 Apr        31      54     244      18      44     188 dem      
##  4  2015 Mar        31      54     245      18      44     188 dem      
##  5  2015 Feb        31      54     245      18      44     188 dem      
##  6  2015 Jan        31      54     245      18      44     188 dem      
##  7  2014 Dec        29      45     235      21      53     201 dem      
##  8  2014 Nov        29      45     235      21      53     201 dem      
##  9  2014 Oct        29      45     234      21      53     199 dem      
## 10  2014 Sep        29      45     234      21      53     199 dem      
## # ... with 812 more rows
```
…
### 3.2 Clean `snp.csv`

``` r
#Read and clean snp.csv
snp <- read_csv("./Datasets/snp.csv") %>%
  janitor::clean_names() %>%separate(date,c("month","day","year")) %>%
  mutate(year = as.integer(year), month = as.integer(month), day = as.integer(day)) %>%
  mutate(month = recode(month, `1` = "Jan", `2` = "Feb", `3` = "Mar", `4` = "Apr",    
                        `5` = "May" , `6`= "Jun", `7` = "Jul", `8` = "Aug",           
                        `9` = "Sep", `10` = "Oct", `11` = "Nov", `12` = "Dec")) %>%   
  select(year,month,close)
snp
## # A tibble: 787 x 3
##     year month close
##    <int> <chr> <dbl>
##  1  2015 Jul   2080.
##  2  2015 Jun   2063.
##  3  2015 May   2107.
##  4  2015 Apr   2086.
##  5  2015 Mar   2068.
##  6  2015 Feb   2104.
##  7  2015 Jan   1995.
##  8  2014 Dec   2059.
##  9  2014 Nov   2068.
## 10  2014 Oct   2018.
## # ... with 777 more rows
```
…
### 3.3 Clean `unemployment.csv`

``` r
#Read and claen unemployment.csv
unemploy <- read_csv("./Datasets/unemployment.csv") %>%  
  pivot_longer(Jan:Dec,
               names_to = "month", 
               values_to = "unemployment") %>%
  select(year = Year,everything()) %>%
  arrange(desc(row_number()))
unemploy
## # A tibble: 816 x 3
##     year month unemployment
##    <dbl> <chr>        <dbl>
##  1  2015 Dec           NA  
##  2  2015 Nov           NA  
##  3  2015 Oct           NA  
##  4  2015 Sep           NA  
##  5  2015 Aug           NA  
##  6  2015 Jul           NA  
##  7  2015 Jun            5.3
##  8  2015 May            5.5
##  9  2015 Apr            5.4
## 10  2015 Mar            5.5
## # ... with 806 more rows
```

This data contains 816 variable with 3 variables. Variables `year` and
`month`are descriptions of year and month, started from Jun.1948 to
Dec.2015. The variable `unemployment` is the percentage of unemployment
in the relate month. 6 rows in unemployment are missing.

### 3.4 Merge into one dataset

``` r
#Combine these three tibbles
result <- left_join(pol, snp, by = c("year","month")) %>% 
  left_join(., unemploy, by = c("year","month"))
result
## # A tibble: 822 x 11
##     year month gov_gop sen_gop rep_gop gov_dem sen_dem rep_dem president close
##    <dbl> <chr>   <dbl>   <dbl>   <dbl>   <dbl>   <dbl>   <dbl> <chr>     <dbl>
##  1  2015 Jun        31      54     246      18      44     188 dem       2063.
##  2  2015 May        31      54     245      18      44     188 dem       2107.
##  3  2015 Apr        31      54     244      18      44     188 dem       2086.
##  4  2015 Mar        31      54     245      18      44     188 dem       2068.
##  5  2015 Feb        31      54     245      18      44     188 dem       2104.
##  6  2015 Jan        31      54     245      18      44     188 dem       1995.
##  7  2014 Dec        29      45     235      21      53     201 dem       2059.
##  8  2014 Nov        29      45     235      21      53     201 dem       2068.
##  9  2014 Oct        29      45     234      21      53     199 dem       2018.
## 10  2014 Sep        29      45     234      21      53     199 dem       1972.
## # ... with 812 more rows, and 1 more variable: unemployment <dbl>
```
…
